com\gmail\ubshik\repo\BookHbnDao.class
com\gmail\ubshik\repo\model\News.class
com\gmail\ubshik\repo\model\User$1.class
com\gmail\ubshik\repo\model\Order$1.class
com\gmail\ubshik\repo\GenericHbnDao.class
com\gmail\ubshik\repo\model\Order$Builder.class
com\gmail\ubshik\repo\model\Cart.class
com\gmail\ubshik\repo\model\News$Builder.class
com\gmail\ubshik\repo\model\User$Builder.class
com\gmail\ubshik\repo\model\Order.class
com\gmail\ubshik\repo\model\User.class
com\gmail\ubshik\repo\OrderHbnDao.class
com\gmail\ubshik\repo\impl\NewsHbnDaoImpl.class
com\gmail\ubshik\repo\model\Book$Builder.class
com\gmail\ubshik\repo\model\UserStatus.class
com\gmail\ubshik\repo\impl\CartHbnDaoImpl.class
com\gmail\ubshik\repo\model\Role.class
com\gmail\ubshik\repo\impl\GenericHbnDaoImpl.class
com\gmail\ubshik\repo\model\News$1.class
com\gmail\ubshik\repo\model\CartId.class
com\gmail\ubshik\repo\model\Book$1.class
com\gmail\ubshik\repo\model\Cart$1.class
com\gmail\ubshik\repo\model\CartId$Builder.class
com\gmail\ubshik\repo\util\HibernateUtil.class
com\gmail\ubshik\repo\model\Book.class
com\gmail\ubshik\repo\impl\UserHbnDaoImpl.class
com\gmail\ubshik\repo\model\Cart$Builder.class
com\gmail\ubshik\repo\NewsHbnDao.class
com\gmail\ubshik\repo\CartHbnDao.class
com\gmail\ubshik\repo\model\CartId$1.class
com\gmail\ubshik\repo\impl\BookHbnDaoImpl.class
com\gmail\ubshik\repo\model\OrderStatus.class
com\gmail\ubshik\repo\UserHbnDao.class
com\gmail\ubshik\App.class
com\gmail\ubshik\repo\impl\OrderHbnDaoImpl.class
