F:\Java\ПВТ 2 course\My project with git\book_shop\service\src\main\java\com\gmail\ubshik\services\model\CartIdDTO.java
F:\Java\ПВТ 2 course\My project with git\book_shop\service\src\main\java\com\gmail\ubshik\services\BookService.java
F:\Java\ПВТ 2 course\My project with git\book_shop\service\src\main\java\com\gmail\ubshik\services\exception\UnknowmException.java
F:\Java\ПВТ 2 course\My project with git\book_shop\service\src\main\java\com\gmail\ubshik\services\model\NewsDTO.java
F:\Java\ПВТ 2 course\My project with git\book_shop\service\src\main\java\com\gmail\ubshik\App.java
F:\Java\ПВТ 2 course\My project with git\book_shop\service\src\main\java\com\gmail\ubshik\services\model\CartDTO.java
F:\Java\ПВТ 2 course\My project with git\book_shop\service\src\main\java\com\gmail\ubshik\services\model\OrderDTO.java
F:\Java\ПВТ 2 course\My project with git\book_shop\service\src\main\java\com\gmail\ubshik\services\model\BookDTO.java
F:\Java\ПВТ 2 course\My project with git\book_shop\service\src\main\java\com\gmail\ubshik\services\exception\NotFoundException.java
F:\Java\ПВТ 2 course\My project with git\book_shop\service\src\main\java\com\gmail\ubshik\services\model\UserDTO.java
F:\Java\ПВТ 2 course\My project with git\book_shop\service\src\main\java\com\gmail\ubshik\services\UserService.java
